%YAML 1.1
%TAG !u! tag:unity3d.com,2011:
--- !u!114 &11400000
MonoBehaviour:
  m_ObjectHideFlags: 0
  m_CorrespondingSourceObject: {fileID: 0}
  m_PrefabInstance: {fileID: 0}
  m_PrefabAsset: {fileID: 0}
  m_GameObject: {fileID: 0}
  m_Enabled: 1
  m_EditorHideFlags: 0
  m_Script: {fileID: 11500000, guid: 7371100810664df45b00c4c153a2528e, type: 3}
  m_Name: LoveHeart
  m_EditorClassIdentifier: 
  UniqueID: 0
  CatPrefab: {fileID: 1926815674536459, guid: af3a9d16f6d41004b834089e1f60dbdd, type: 3}
  CatIcon: {fileID: 21300000, guid: 21bae5bba24dbe04ea97ec27fd9a17ee, type: 3}
  CatName: LoveHeart
  _UnlockDefault: 0
  _IsUnlocked: 0
  clip: {fileID: 8300000, guid: a1158d620b09c6c4a89826ad48fe15b0, type: 3}
