{
    "m_SelectedDeviceId": "ZF6224HJHF",
    "m_SelectedPackage": {
        "deviceId": "ZF6224HJHF",
        "name": "com.beat.ly",
        "processId": 13592,
        "exited": true
    },
    "m_SelectedPriority": 0,
    "m_KnownPackagesForSerialization": [
        {
            "deviceId": "ZF6224HJHF",
            "name": "com.motorola.launcher3",
            "processId": 5129,
            "exited": false
        },
        {
            "deviceId": "ZF6224HJHF",
            "name": "com.beat.ly",
            "processId": 11992,
            "exited": true
        },
        {
            "deviceId": "ZF6224HJHF",
            "name": "com.beat.ly",
            "processId": 13592,
            "exited": true
        },
        {
            "deviceId": "ZF6224HJHF",
            "name": "com.beat.ly",
            "processId": 14844,
            "exited": true
        },
        {
            "deviceId": "ZF6224HJHF",
            "name": "com.beat.ly",
            "processId": 8439,
            "exited": true
        },
        {
            "deviceId": "ZF6224HJHF",
            "name": "com.beat.ly",
            "processId": 12497,
            "exited": true
        },
        {
            "deviceId": "ZF6224HJHF",
            "name": "com.beat.ly",
            "processId": 15324,
            "exited": true
        },
        {
            "deviceId": "ZF6224HJHF",
            "name": "com.beat.ly",
            "processId": 23905,
            "exited": true
        },
        {
            "deviceId": "ZF6224HJHF",
            "name": "com.beat.ly",
            "processId": 29712,
            "exited": true
        },
        {
            "deviceId": "ZF6224HJHF",
            "name": "com.beat.ly",
            "processId": 25605,
            "exited": true
        },
        {
            "deviceId": "ZF6224HJHF",
            "name": "com.beat.ly",
            "processId": 27955,
            "exited": true
        },
        {
            "deviceId": "ZF6224HJHF",
            "name": "com.beat.ly",
            "processId": 7744,
            "exited": false
        },
        {
            "deviceId": "ZF6224HJHF",
            "name": "com.beat.ly",
            "processId": 10367,
            "exited": false
        },
        {
            "deviceId": "ZF6224HJHF",
            "name": "com.beat.ly",
            "processId": 14522,
            "exited": false
        },
        {
            "deviceId": "ZF6224HJHF",
            "name": "com.beat.ly",
            "processId": 23970,
            "exited": false
        },
        {
            "deviceId": "ZF6224HJHF",
            "name": "com.beat.ly",
            "processId": 26611,
            "exited": false
        },
        {
            "deviceId": "ZF6224HJHF",
            "name": "com.beat.ly",
            "processId": 2897,
            "exited": false
        },
        {
            "deviceId": "4SJJSWAUBUUK4DBA",
            "name": "com.aanipower.vidmash",
            "processId": 17601,
            "exited": false
        },
        {
            "deviceId": "4SJJSWAUBUUK4DBA",
            "name": "com.aanipower.vidmash",
            "processId": 23596,
            "exited": false
        },
        {
            "deviceId": "ORQSDMRG6HI7QWYL",
            "name": "com.android.settings",
            "processId": 5926,
            "exited": true
        },
        {
            "deviceId": "d6c4d8307ce5",
            "name": "com.beat.ly",
            "processId": 27190,
            "exited": false
        },
        {
            "deviceId": "d6c4d8307ce5",
            "name": "com.beat.ly",
            "processId": 1326,
            "exited": false
        }
    ],
    "m_Tags": {
        "m_Entries": [
            {
                "m_Name": "Filter by all listed tags",
                "m_Selected": false
            },
            {
                "m_Name": "No Filter",
                "m_Selected": true
            },
            {
                "m_Name": "",
                "m_Selected": false
            },
            {
                "m_Name": "Tag Control...",
                "m_Selected": false
            },
            {
                "m_Name": "",
                "m_Selected": false
            },
            {
                "m_Name": "Unity",
                "m_Selected": false
            },
            {
                "m_Name": "CRASH",
                "m_Selected": false
            }
        ]
    },
    "m_MemoryViewerState": {
        "MemoryWindowHeight": 255.0,
        "MemoryWindowWidth": 170.0,
        "MemoryTypeEnabled": [
            true,
            true,
            true,
            true,
            true,
            true,
            true,
            true,
            true,
            true
        ],
        "MemoryGroup": 1,
        "Behavior": 1
    },
    "m_Filter": "",
    "m_FilterIsRegularExpression": false,
    "m_SymbolPaths": []
}