%YAML 1.1
%TAG !u! tag:unity3d.com,2011:
--- !u!1045 &1
EditorBuildSettings:
  m_ObjectHideFlags: 0
  serializedVersion: 2
  m_Scenes:
  - enabled: 1
    path: Assets/Scenes/StartScreen.unity
    guid: 0a38dbbe876de5641acd26aed395a7b9
  - enabled: 1
    path: Assets/Scenes/PreviewScreenNew.unity
    guid: 3dce99b2369373444b63d4b7fd7483a0
  - enabled: 1
    path: Assets/Scenes/FInalScreenNew.unity
    guid: 9400fc335c9a1664d90ad28f7cc23525
  - enabled: 1
    path: Assets/Tutorials/MusicSyncVisualizer/mytest.unity
    guid: dc83da7313c282f41a1817f8f0a5518f
  m_configObjects:
    com.unity.addressableassets: {fileID: 11400000, guid: 630844df73d29ba429a0e0b4b3a69847,
      type: 2}
